%YAML 1.1
%TAG !u! tag:unity3d.com,2011:
--- !u!162 &1
EditorUserSettings:
  m_ObjectHideFlags: 0
  serializedVersion: 4
  m_ConfigSettings:
    RecentlyUsedSceneGuid-0:
      value: 515304540607500d5d5f0a2148775a444f1649722a2c23672b2c1960b1e66d6d
      flags: 0
    RecentlyUsedSceneGuid-1:
      value: 5008570454035e5d5a59597345775a44434e1c7d7478736874781e35bae1303e
      flags: 0
    RecentlyUsedSceneGuid-2:
      value: 5a5757560101590a5d0c0e24427b5d44434e4c7a7b7a23677f2b4565b7b5353a
      flags: 0
    RecentlyUsedSceneGuid-3:
      value: 06025651520d5a0b5e575d2441730c44454e4a73747075327c711b67e6b5353d
      flags: 0
    RecentlyUsedSceneGuid-4:
      value: 5401550751075f59090d5b74417b5e44454e4b797f78276975704a37b2e3663a
      flags: 0
    vcSharedLogLevel:
      value: 0d5e400f0650
      flags: 0
  m_VCAutomaticAdd: 1
  m_VCDebugCom: 0
  m_VCDebugCmd: 0
  m_VCDebugOut: 0
  m_SemanticMergeMode: 2
  m_DesiredImportWorkerCount: 4
  m_StandbyImportWorkerCount: 2
  m_IdleImportWorkerShutdownDelay: 60000
  m_VCShowFailedCheckout: 1
  m_VCOverwriteFailedCheckoutAssets: 1
  m_VCProjectOverlayIcons: 1
  m_VCHierarchyOverlayIcons: 1
  m_VCOtherOverlayIcons: 1
  m_VCAllowAsyncUpdate: 1
  m_ArtifactGarbageCollection: 1
